…
Now, I tortured this until it started giving me any less than three stars, so there's a *lot* to be said for square footage. Into the model it goes!

``` r
training %>%
  mutate(
    logGrLivArea = log(GrLivArea),
    sqrtGrLivArea = sqrt(GrLivArea),
    GrLivArea2 = GrLivArea^2,
    GrLivArea3 = GrLivArea^3
  )
```

    ## # A tibble: 1,460 × 88
    ##       Id MSSubClass MSZoning LotFrontage LotArea Street   Alley LotShape
    ##    <int>      <int>    <chr>       <int>   <int>  <chr>   <chr>    <chr>
    ## 1      1         60       RL          65    8450   Pave Unknown      Reg
    ## 2      2         20       RL          80    9600   Pave Unknown      Reg
    ## 3      3         60       RL          68   11250   Pave Unknown      IR1
    ## 4      4         70       RL          60    9550   Pave Unknown      IR1
    ## 5      5         60       RL          84   14260   Pave Unknown      IR1
    ## 6      6         50       RL          85   14115   Pave Unknown      IR1
    ## 7      7         20       RL          75   10084   Pave Unknown      Reg
    ## 8      8         60       RL          70   10382   Pave Unknown      IR1
    ## 9      9         50       RM          51    6120   Pave Unknown      Reg
    ## 10    10        190       RL          50    7420   Pave Unknown      Reg
    ## # ... with 1,450 more rows, and 80 more variables: LandContour <chr>,
    ## #   Utilities <chr>, LotConfig <chr>, LandSlope <chr>, Neighborhood <chr>,
    ## #   Condition1 <chr>, Condition2 <chr>, BldgType <chr>, HouseStyle <chr>,
    ## #   OverallQual <int>, OverallCond <int>, YearBuilt <int>,
    ## #   YearRemodAdd <int>, RoofStyle <chr>, RoofMatl <chr>,
    ## #   Exterior1st <chr>, Exterior2nd <chr>, MasVnrType <chr>,
    ## #   MasVnrArea <int>, ExterQual <chr>, ExterCond <chr>, Foundation <chr>,
    ## #   BsmtQual <chr>, BsmtCond <chr>, BsmtExposure <chr>,
    ## #   BsmtFinType1 <chr>, BsmtFinSF1 <int>, BsmtFinType2 <chr>,
…
